Exploring Triple J Hottest 100 data • hottest100
…
So, let’s explore the data a bit.

First question: Do the same tracks appear in multiple polls? (Answer:
Yes, they do, because there are several “Best song of all time” polls in
the collection!)

tracks |>
  group_by(artist, track) |>
  summarise(count = n()) |>
  ungroup() |> 
  arrange(-count)
#> `summarise()` has grouped output by 'artist'. You can override using the
#> `.groups` argument.
#> # A tibble: 3,729 × 3
#>    artist                      track                     count
#>    <chr>                       <chr>                     <int>
#>  1 Hunters & Collectors        Throw Your Arms Around Me     6
#>  2 Joy Division                Love Will Tear Us Apart       5
#>  3 New Order                   Blue Monday                   5
#>  4 Nick Cave & The Bad Seeds   Into My Arms                  5
#>  5 Pink Floyd                  Wish You Were Here            5
#>  6 Silverchair                 Tomorrow                      5
#>  7 The Jimi Hendrix Experience All Along the Watchtower      5
#>  8 The Smiths                  How Soon Is Now?              5
#>  9 You Am I                    Berlin Chair                  5
#> 10 Angus & Julia Stone         Big Jet Plane                 4
#> # ℹ 3,719 more rows
…
tracks_clean |>
  group_by(artist, track, track_clean) |>
  summarise(count = n()) |>
  ungroup() |>
  group_by(artist, track_clean) |>
  summarise(count = n()) |>
  ungroup() |>
  filter(count > 1) |>
  arrange(-count)
#> `summarise()` has grouped output by 'artist', 'track'. You can override using
#> the `.groups` argument.
#> `summarise()` has grouped output by 'artist'. You can override using the
#> `.groups` argument.
#> # A tibble: 35 × 3
#>    artist            track_clean                           count
#>    <chr>             <chr>                                 <int>
#>  1 AC/DC             Back In Black                             2
#>  2 AC/DC             Highway To Hell                           2
#>  3 Arctic Monkeys    I Bet You Look Good On The Dancefloor     2
#>  4 Ball Park Music   It's Nice To Be Alive                     2
#>  5 Billy Bragg       Greetings To The New Brunette             2
#>  6 Billy Bragg       Waiting For The Great Leap Forwards       2
#>  7 Daft Punk         Around The World                          2
#>  8 Disclosure        Latch {Ft. Sam Smith}                     2
#>  9 Flight Facilities Clair De Lune {Ft. Christine Hoberg}      2
#> 10 Flume             On Top {Ft. T-Shirt}                      2
#> # ℹ 25 more rows
…
