…
## Examples

``` r
library(dplyr)
#> 
#> Attaching package: ‘dplyr’
#> The following objects are masked from ‘package:stats’:
#> 
#>     filter, lag
#> The following objects are masked from ‘package:base’:
#> 
#>     intersect, setdiff, setequal, union
as_tibble(artists)
#> # A tibble: 2,729 × 3
#>    artist           country   releaseyear
#>    <chr>            <chr>     <chr>      
#>  1 Spiderbait       Australia 1996       
#>  2 Tool             USA       1996       
#>  3 Ben Folds Five   USA       1996       
#>  4 Butthole Surfers USA       1996       
#>  5 Bush             UK        1996       
#>  6 Powderfinger     Australia 1996       
#>  7 The Prodigy      UK        1996       
#>  8 Allen Ginsberg   USA       1996       
#>  9 Weezer           USA       1996       
#> 10 311              USA       1996       
#> # ℹ 2,719 more rows
…
