…
- track:

  Title of the track or song.

## Source

<https://www.abc.net.au/triplej/hottest100/archive/search/>

## Examples

``` r
library(dplyr)
as_tibble(tracks)
#> # A tibble: 4,200 × 8
#>    alltime artist           country   id    pollyear position releaseyear track 
#>    <lgl>   <chr>            <chr>     <chr>    <int>    <int> <chr>       <chr> 
#>  1 FALSE   Spiderbait       Australia 1         1996        1 1996        Buy M…
#>  2 FALSE   Tool             USA       2         1996        2 1996        Stink…
#>  3 FALSE   Ben Folds Five   USA       3         1996        3 1996        Under…
#>  4 FALSE   Butthole Surfers USA       4         1996        4 1996        Pepper
#>  5 FALSE   Bush             UK        5         1996        5 1996        Glyce…
#>  6 FALSE   Powderfinger     Australia 6         1996        6 1996        Pick …
#>  7 FALSE   The Prodigy      UK        7         1996        7 1996        Breat…
#>  8 FALSE   Allen Ginsberg   USA       8         1996        8 1996        Balla…
#>  9 FALSE   Weezer           USA       9         1996        9 1996        El Sc…
#> 10 FALSE   311              USA       10        1996       11 1996        Down  
#> # ℹ 4,190 more rows
…
